individual_jian
…
crash%>%group_by(PRIM_CONTRIBUTORY_CAUSE)%>%summarise(total=n())%>%arrange(desc(total))

## # A tibble: 36 x 2
##    PRIM_CONTRIBUTORY_CAUSE                total
##    <chr>                                  <int>
##  1 FOLLOWING TOO CLOSELY                   5708
##  2 FAILING TO YIELD RIGHT-OF-WAY           4227
##  3 IMPROPER OVERTAKING/PASSING             2420
##  4 IMPROPER BACKING                        2354
##  5 IMPROPER LANE USAGE                     1862
##  6 DRIVING SKILLS/KNOWLEDGE/EXPERIENCE     1740
##  7 IMPROPER TURNING/NO SIGNAL              1413
##  8 FAILING TO REDUCE SPEED TO AVOID CRASH  1224
##  9 WEATHER                                  598
## 10 DISREGARDING TRAFFIC SIGNALS             431
## #  with 26 more rows
…
crash%>%group_by(SEC_CONTRIBUTORY_CAUSE)%>%summarise(total=n())%>%arrange(desc(total))

## # A tibble: 36 x 2
##    SEC_CONTRIBUTORY_CAUSE                                                  total
##    <chr>                                                                   <int>
##  1 FOLLOWING TOO CLOSELY                                                    1475
##  2 FAILING TO REDUCE SPEED TO AVOID CRASH                                   1474
##  3 DRIVING SKILLS/KNOWLEDGE/EXPERIENCE                                      1469
##  4 FAILING TO YIELD RIGHT-OF-WAY                                            1429
##  5 IMPROPER OVERTAKING/PASSING                                               677
##  6 IMPROPER LANE USAGE                                                       656
##  7 IMPROPER BACKING                                                          457
##  8 WEATHER                                                                   443
##  9 IMPROPER TURNING/NO SIGNAL                                                414
## 10 OPERATING VEHICLE IN ERRATIC, RECKLESS, CARELESS, NEGLIGENT OR AGGRESS   188
## #  with 26 more rows
…
# total accident 
crash<-crash%>%filter(!is.na(INJURIES_TOTAL))
sum(crash$INJURIES_TOTAL)

## [1] 1245

crash%>%group_by(PRIM_CONTRIBUTORY_CAUSE)%>%summarise(total=sum(INJURIES_TOTAL))%>%arrange(desc(total))

## # A tibble: 35 x 2
##    PRIM_CONTRIBUTORY_CAUSE                                                 total
##    <chr>                                                                   <dbl>
##  1 FOLLOWING TOO CLOSELY                                                     270
##  2 FAILING TO YIELD RIGHT-OF-WAY                                             213
##  3 DISREGARDING TRAFFIC SIGNALS                                              139
##  4 FAILING TO REDUCE SPEED TO AVOID CRASH                                    105
##  5 IMPROPER TURNING/NO SIGNAL                                                 52
##  6 IMPROPER OVERTAKING/PASSING                                                47
##  7 DISREGARDING STOP SIGN                                                     46
##  8 OPERATING VEHICLE IN ERRATIC, RECKLESS, CARELESS, NEGLIGENT OR AGGRESS    41
##  9 DRIVING SKILLS/KNOWLEDGE/EXPERIENCE                                        36
## 10 IMPROPER LANE USAGE                                                        35
## #  with 25 more rows
…
crash<-crash%>%filter(!is.na(INJURIES_FATAL))
#crash<-crash%>%filter(INJURIES_FATAL>0)
crash%>%group_by(PRIM_CONTRIBUTORY_CAUSE)%>%summarise(total=sum(INJURIES_FATAL))%>%arrange(desc(total))

## # A tibble: 35 x 2
##    PRIM_CONTRIBUTORY_CAUSE                                                 total
##    <chr>                                                                   <dbl>
##  1 DISREGARDING TRAFFIC SIGNALS                                                1
##  2 DISTRACTION - FROM INSIDE VEHICLE                                           1
##  3 IMPROPER OVERTAKING/PASSING                                                 1
##  4 OPERATING VEHICLE IN ERRATIC, RECKLESS, CARELESS, NEGLIGENT OR AGGRESS     1
##  5 ANIMAL                                                                      0
##  6 CELL PHONE USE OTHER THAN TEXTING                                           0
##  7 DISREGARDING OTHER TRAFFIC SIGNS                                            0
##  8 DISREGARDING ROAD MARKINGS                                                  0
##  9 DISREGARDING STOP SIGN                                                      0
## 10 DISREGARDING YIELD SIGN                                                     0
## #  with 25 more rows
…
