Final Project: Meredith
…
How does weather play into the factor of accidents?

#Data Contributed to Weather Related Causes
try <- crash %>% select('WEATHER_CONDITION', 'PRIM_CONTRIBUTORY_CAUSE', 'SEC_CONTRIBUTORY_CAUSE', 'ROADWAY_SURFACE_COND', 'LIGHTING_CONDITION', 'CRASH_TYPE', 'DAMAGE', 'INTERSECTION_RELATED_I', 'NUM_UNITS', 'INJURIES_TOTAL', 'POSTED_SPEED_LIMIT', 'CRASH_DATE', 'Month') %>%
  filter(PRIM_CONTRIBUTORY_CAUSE =='WEATHER'| PRIM_CONTRIBUTORY_CAUSE =='EXCEEDING SAFE SPEED FOR CONDITIONS' | SEC_CONTRIBUTORY_CAUSE=='WEATHER' | SEC_CONTRIBUTORY_CAUSE=='EXCEEDING SAFE SPEED FOR CONDITIONS')

try

## # A tibble: 1,234 x 13
##    WEATHER_CONDITI~ PRIM_CONTRIBUTO~ SEC_CONTRIBUTOR~ ROADWAY_SURFACE~
##    <chr>            <chr>            <chr>            <chr>           
##  1 CLEAR            FOLLOWING TOO C~ EXCEEDING SAFE ~ DRY             
##  2 CLEAR            WEATHER          UNABLE TO DETER~ DRY             
##  3 CLEAR            EXCEEDING SAFE ~ FAILING TO REDU~ DRY             
##  4 CLEAR            WEATHER          WEATHER          ICE             
##  5 RAIN             WEATHER          EXCEEDING SAFE ~ WET             
##  6 RAIN             EXCEEDING SAFE ~ EXCEEDING SAFE ~ WET             
##  7 RAIN             FAILING TO YIEL~ WEATHER          WET             
##  8 UNKNOWN          EXCEEDING SAFE ~ FAILING TO YIEL~ UNKNOWN         
##  9 CLEAR            WEATHER          UNABLE TO DETER~ ICE             
## 10 CLEAR            WEATHER          NOT APPLICABLE   WET             
## # ... with 1,224 more rows, and 9 more variables: LIGHTING_CONDITION <chr>,
## #   CRASH_TYPE <chr>, DAMAGE <chr>, INTERSECTION_RELATED_I <chr>,
## #   NUM_UNITS <dbl>, INJURIES_TOTAL <dbl>, POSTED_SPEED_LIMIT <dbl>,
## #   CRASH_DATE <chr>, Month <dbl>

newthing <- crash %>% select('WEATHER_CONDITION', 'PRIM_CONTRIBUTORY_CAUSE', 'SEC_CONTRIBUTORY_CAUSE', 'ROADWAY_SURFACE_COND', 'LIGHTING_CONDITION', 'Month', 'CRASH_DATE')

newthing$CRASH_DATE <- as.Date(mdy_hm(newthing$CRASH_DATE))

newthing <- newthing %>% 
  mutate(Month = month(Month, label=TRUE))

idea <- newthing %>% group_by(Month, WEATHER_CONDITION) %>% summarize(Count = n()) %>% arrange(Month)
idea

## # A tibble: 91 x 3
## # Groups:   Month [12]
##    Month WEATHER_CONDITION Count
##    <ord> <chr>             <int>
##  1 Jan   CLEAR              2002
##  2 Jan   CLOUDY/OVERCAST      80
##  3 Jan   FOG/SMOKE/HAZE        4
##  4 Jan   OTHER                13
##  5 Jan   RAIN                165
##  6 Jan   SLEET/HAIL            5
##  7 Jan   SNOW                211
##  8 Jan   UNKNOWN             289
##  9 Feb   CLEAR              1936
## 10 Feb   CLOUDY/OVERCAST      47
## # ... with 81 more rows
…
trynew <- try %>% select('WEATHER_CONDITION', 'PRIM_CONTRIBUTORY_CAUSE', 'SEC_CONTRIBUTORY_CAUSE', 'ROADWAY_SURFACE_COND', 'LIGHTING_CONDITION', 'Month', 'CRASH_DATE')

trynew <- trynew %>% 
  mutate(Month = month(Month, label=TRUE))

tryidea <- trynew %>% group_by(Month, WEATHER_CONDITION) %>% summarize(Count = n()) %>% arrange(Month)
tryidea

## # A tibble: 53 x 3
## # Groups:   Month [12]
##    Month WEATHER_CONDITION      Count
##    <ord> <chr>                  <int>
##  1 Jan   CLEAR                     38
##  2 Jan   CLOUDY/OVERCAST            6
##  3 Jan   OTHER                      1
##  4 Jan   RAIN                      22
##  5 Jan   SNOW                      46
##  6 Feb   CLEAR                     24
##  7 Feb   OTHER                      4
##  8 Feb   RAIN                       7
##  9 Feb   SEVERE CROSS WIND GATE     5
## 10 Feb   SNOW                      54
## # ... with 43 more rows
…
Organized Data with Summarizing

#Data Contributed to Weather Related Causes
try <- crash %>% select('WEATHER_CONDITION', 'PRIM_CONTRIBUTORY_CAUSE', 'SEC_CONTRIBUTORY_CAUSE', 'ROADWAY_SURFACE_COND', 'LIGHTING_CONDITION', 'CRASH_TYPE', 'DAMAGE', 'INTERSECTION_RELATED_I', 'NUM_UNITS', 'INJURIES_TOTAL', 'POSTED_SPEED_LIMIT', 'CRASH_DATE', 'Month') %>%
  filter(PRIM_CONTRIBUTORY_CAUSE =='WEATHER'| PRIM_CONTRIBUTORY_CAUSE =='EXCEEDING SAFE SPEED FOR CONDITIONS' | SEC_CONTRIBUTORY_CAUSE=='WEATHER' | SEC_CONTRIBUTORY_CAUSE=='EXCEEDING SAFE SPEED FOR CONDITIONS')

try

## # A tibble: 1,234 x 13
##    WEATHER_CONDITI~ PRIM_CONTRIBUTO~ SEC_CONTRIBUTOR~ ROADWAY_SURFACE~
##    <chr>            <chr>            <chr>            <chr>           
##  1 CLEAR            FOLLOWING TOO C~ EXCEEDING SAFE ~ DRY             
##  2 CLEAR            WEATHER          UNABLE TO DETER~ DRY             
##  3 CLEAR            EXCEEDING SAFE ~ FAILING TO REDU~ DRY             
##  4 CLEAR            WEATHER          WEATHER          ICE             
##  5 RAIN             WEATHER          EXCEEDING SAFE ~ WET             
##  6 RAIN             EXCEEDING SAFE ~ EXCEEDING SAFE ~ WET             
##  7 RAIN             FAILING TO YIEL~ WEATHER          WET             
##  8 UNKNOWN          EXCEEDING SAFE ~ FAILING TO YIEL~ UNKNOWN         
##  9 CLEAR            WEATHER          UNABLE TO DETER~ ICE             
## 10 CLEAR            WEATHER          NOT APPLICABLE   WET             
## # ... with 1,224 more rows, and 9 more variables: LIGHTING_CONDITION <chr>,
## #   CRASH_TYPE <chr>, DAMAGE <chr>, INTERSECTION_RELATED_I <chr>,
## #   NUM_UNITS <dbl>, INJURIES_TOTAL <dbl>, POSTED_SPEED_LIMIT <dbl>,
## #   CRASH_DATE <chr>, Month <dbl>
…
